<svg width="62" height="14" viewBox="0 0 62 14" fill="none" xmlns="http://www.w3.org/2000/svg">
<path d="M0.444336 7.00684L1.1001 0.914062H7.59131V2.65723H2.77686L2.44482 5.5459C3.00374 5.22493 3.6346 5.06445 4.3374 5.06445C5.48844 5.06445 6.38216 5.43245 7.01855 6.16846C7.66048 6.90446 7.98145 7.89502 7.98145 9.14014C7.98145 10.3687 7.62728 11.3481 6.91895 12.0786C6.21061 12.8035 5.23942 13.166 4.00537 13.166C2.8986 13.166 1.97998 12.8534 1.24951 12.228C0.524577 11.5972 0.131673 10.7671 0.0708008 9.73779H2.02148C2.09896 10.3244 2.30924 10.7754 2.65234 11.0908C2.99544 11.4007 3.44368 11.5557 3.99707 11.5557C4.61686 11.5557 5.09831 11.3343 5.44141 10.8916C5.79004 10.4489 5.96436 9.8457 5.96436 9.08203C5.96436 8.34603 5.77344 7.76497 5.3916 7.33887C5.00977 6.90723 4.48405 6.69141 3.81445 6.69141C3.44922 6.69141 3.13932 6.74121 2.88477 6.84082C2.63021 6.9349 2.35352 7.12305 2.05469 7.40527L0.444336 7.00684ZM10.9116 10.875C11.2879 10.875 11.5785 10.9829 11.7832 11.1987C11.988 11.409 12.0903 11.6746 12.0903 11.9956C12.0903 12.311 11.988 12.5739 11.7832 12.7842C11.5785 12.9889 11.2879 13.0913 10.9116 13.0913C10.5519 13.0913 10.2669 12.9889 10.0566 12.7842C9.84635 12.5794 9.74121 12.3166 9.74121 11.9956C9.74121 11.6746 9.84359 11.409 10.0483 11.1987C10.2531 10.9829 10.5409 10.875 10.9116 10.875ZM10.9116 3.82764C11.2879 3.82764 11.5785 3.93555 11.7832 4.15137C11.988 4.36165 12.0903 4.62728 12.0903 4.94824C12.0903 5.26367 11.988 5.52653 11.7832 5.73682C11.5785 5.94157 11.2879 6.04395 10.9116 6.04395C10.5519 6.04395 10.2669 5.94157 10.0566 5.73682C9.84635 5.53206 9.74121 5.26921 9.74121 4.94824C9.74121 4.62728 9.84359 4.36165 10.0483 4.15137C10.2531 3.93555 10.5409 3.82764 10.9116 3.82764ZM21.96 7.91162C21.96 9.64925 21.6335 10.9608 20.9805 11.8462C20.333 12.7261 19.3452 13.166 18.0171 13.166C16.7111 13.166 15.7261 12.7371 15.062 11.8794C14.4035 11.0161 14.0659 9.74056 14.0493 8.05273V5.96094C14.0493 4.22331 14.373 2.92008 15.0205 2.05127C15.6735 1.18245 16.6668 0.748047 18.0005 0.748047C19.3231 0.748047 20.3081 1.17139 20.9556 2.01807C21.6086 2.86475 21.9434 4.132 21.96 5.81982V7.91162ZM19.9429 5.65381C19.9429 4.51937 19.7879 3.68929 19.478 3.16357C19.1681 2.63232 18.6756 2.3667 18.0005 2.3667C17.342 2.3667 16.8577 2.61849 16.5479 3.12207C16.238 3.62012 16.0747 4.40039 16.0581 5.46289V8.20215C16.0581 9.33105 16.2158 10.1722 16.5312 10.7256C16.8467 11.279 17.342 11.5557 18.0171 11.5557C18.6646 11.5557 19.1432 11.3011 19.4531 10.792C19.763 10.2773 19.9263 9.47493 19.9429 8.38477V5.65381ZM31.6221 7.91162C31.6221 9.64925 31.2956 10.9608 30.6426 11.8462C29.9951 12.7261 29.0073 13.166 27.6792 13.166C26.3732 13.166 25.3882 12.7371 24.7241 11.8794C24.0656 11.0161 23.728 9.74056 23.7114 8.05273V5.96094C23.7114 4.22331 24.0352 2.92008 24.6826 2.05127C25.3356 1.18245 26.3289 0.748047 27.6626 0.748047C28.9852 0.748047 29.9702 1.17139 30.6177 2.01807C31.2707 2.86475 31.6055 4.132 31.6221 5.81982V7.91162ZM29.605 5.65381C29.605 4.51937 29.45 3.68929 29.1401 3.16357C28.8302 2.63232 28.3377 2.3667 27.6626 2.3667C27.0041 2.3667 26.5199 2.61849 26.21 3.12207C25.9001 3.62012 25.7368 4.40039 25.7202 5.46289V8.20215C25.7202 9.33105 25.8779 10.1722 26.1934 10.7256C26.5088 11.279 27.0041 11.5557 27.6792 11.5557C28.3267 11.5557 28.8053 11.3011 29.1152 10.792C29.4251 10.2773 29.5884 9.47493 29.605 8.38477V5.65381ZM40.064 8.50928V13H37.9639V0.914062H42.5874C43.9377 0.914062 45.0085 1.26546 45.7998 1.96826C46.5967 2.67106 46.9951 3.60075 46.9951 4.75732C46.9951 5.94157 46.605 6.86296 45.8247 7.52148C45.05 8.18001 43.9626 8.50928 42.5625 8.50928H40.064ZM40.064 6.82422H42.5874C43.3345 6.82422 43.9045 6.6499 44.2974 6.30127C44.6903 5.9471 44.8867 5.43799 44.8867 4.77393C44.8867 4.12093 44.6875 3.60075 44.2891 3.21338C43.8906 2.82048 43.3428 2.61849 42.6455 2.60742H40.064V6.82422ZM51.5605 0.914062L55.0469 10.1777L58.5249 0.914062H61.2393V13H59.1475V9.01562L59.355 3.68652L55.7856 13H54.2832L50.7222 3.69482L50.9297 9.01562V13H48.8379V0.914062H51.5605Z" fill="white"/>
</svg>
