<svg width="74" height="18" viewBox="0 0 74 18" fill="none" xmlns="http://www.w3.org/2000/svg">
<path d="M8.46387 11.0205H3.50684L2.46973 14H0.158203L4.99219 1.20312H6.9873L11.8301 14H9.50977L8.46387 11.0205ZM4.13086 9.22754H7.83984L5.98535 3.91895L4.13086 9.22754ZM14.6426 4.49023L14.7041 5.58887C15.4072 4.73926 16.3301 4.31445 17.4727 4.31445C19.4531 4.31445 20.4609 5.44824 20.4961 7.71582V14H18.3604V7.83887C18.3604 7.23535 18.2285 6.79004 17.9648 6.50293C17.707 6.20996 17.2822 6.06348 16.6904 6.06348C15.8291 6.06348 15.1875 6.45312 14.7656 7.23242V14H12.6299V4.49023H14.6426ZM28.3623 14C28.2686 13.8184 28.1865 13.5225 28.1162 13.1123C27.4365 13.8213 26.6045 14.1758 25.6201 14.1758C24.665 14.1758 23.8857 13.9033 23.2822 13.3584C22.6787 12.8135 22.377 12.1396 22.377 11.3369C22.377 10.3232 22.752 9.54688 23.502 9.00781C24.2578 8.46289 25.3359 8.19043 26.7363 8.19043H28.0459V7.56641C28.0459 7.07422 27.9082 6.68164 27.6328 6.38867C27.3574 6.08984 26.9385 5.94043 26.376 5.94043C25.8896 5.94043 25.4912 6.06348 25.1807 6.30957C24.8701 6.5498 24.7148 6.85742 24.7148 7.23242H22.5791C22.5791 6.71094 22.752 6.22461 23.0977 5.77344C23.4434 5.31641 23.9121 4.95898 24.5039 4.70117C25.1016 4.44336 25.7666 4.31445 26.499 4.31445C27.6123 4.31445 28.5 4.5957 29.1621 5.1582C29.8242 5.71484 30.1641 6.5 30.1816 7.51367V11.8027C30.1816 12.6582 30.3018 13.3408 30.542 13.8506V14H28.3623ZM26.0156 12.4619C26.4375 12.4619 26.833 12.3594 27.2021 12.1543C27.5771 11.9492 27.8584 11.6738 28.0459 11.3281V9.53516H26.8945C26.1035 9.53516 25.5088 9.67285 25.1104 9.94824C24.7119 10.2236 24.5127 10.6133 24.5127 11.1172C24.5127 11.5273 24.6475 11.8555 24.917 12.1016C25.1924 12.3418 25.5586 12.4619 26.0156 12.4619ZM34.6904 14H32.5547V0.5H34.6904V14ZM40.3506 10.9414L42.2842 4.49023H44.5605L40.7812 15.4414C40.2012 17.041 39.2168 17.8408 37.8281 17.8408C37.5176 17.8408 37.1748 17.7881 36.7998 17.6826V16.0303L37.2041 16.0566C37.7432 16.0566 38.1475 15.957 38.417 15.7578C38.6924 15.5645 38.9092 15.2363 39.0674 14.7734L39.375 13.9561L36.0352 4.49023H38.3379L40.3506 10.9414ZM48.4717 2.17871V4.49023H50.1504V6.07227H48.4717V11.3809C48.4717 11.7441 48.542 12.0078 48.6826 12.1719C48.8291 12.3301 49.0869 12.4092 49.4561 12.4092C49.7021 12.4092 49.9512 12.3799 50.2031 12.3213V13.9736C49.7168 14.1084 49.248 14.1758 48.7969 14.1758C47.1562 14.1758 46.3359 13.2705 46.3359 11.46V6.07227H44.7715V4.49023H46.3359V2.17871H48.4717ZM54.0615 14H51.9258V4.49023H54.0615V14ZM51.7939 2.02051C51.7939 1.69238 51.8965 1.41992 52.1016 1.20312C52.3125 0.986328 52.6113 0.87793 52.998 0.87793C53.3848 0.87793 53.6836 0.986328 53.8945 1.20312C54.1055 1.41992 54.2109 1.69238 54.2109 2.02051C54.2109 2.34277 54.1055 2.6123 53.8945 2.8291C53.6836 3.04004 53.3848 3.14551 52.998 3.14551C52.6113 3.14551 52.3125 3.04004 52.1016 2.8291C51.8965 2.6123 51.7939 2.34277 51.7939 2.02051ZM60.3018 12.4707C60.835 12.4707 61.2773 12.3154 61.6289 12.0049C61.9805 11.6943 62.168 11.3105 62.1914 10.8535H64.2041C64.1807 11.4453 63.9961 11.999 63.6504 12.5146C63.3047 13.0244 62.8359 13.4287 62.2441 13.7275C61.6523 14.0264 61.0137 14.1758 60.3281 14.1758C58.998 14.1758 57.9434 13.7451 57.1641 12.8838C56.3848 12.0225 55.9951 10.833 55.9951 9.31543V9.0957C55.9951 7.64844 56.3818 6.49121 57.1553 5.62402C57.9287 4.75098 58.9834 4.31445 60.3193 4.31445C61.4502 4.31445 62.3701 4.64551 63.0791 5.30762C63.7939 5.96387 64.1689 6.82812 64.2041 7.90039H62.1914C62.168 7.35547 61.9805 6.90723 61.6289 6.55566C61.2832 6.2041 60.8408 6.02832 60.3018 6.02832C59.6104 6.02832 59.0771 6.28027 58.7021 6.78418C58.3271 7.28223 58.1367 8.04102 58.1309 9.06055V9.40332C58.1309 10.4346 58.3154 11.2051 58.6846 11.7148C59.0596 12.2188 59.5986 12.4707 60.3018 12.4707ZM71.1475 11.416C71.1475 11.0352 70.9893 10.7451 70.6729 10.5459C70.3623 10.3467 69.8438 10.1709 69.1172 10.0186C68.3906 9.86621 67.7842 9.67285 67.2979 9.43848C66.2314 8.92285 65.6982 8.17578 65.6982 7.19727C65.6982 6.37695 66.0439 5.69141 66.7354 5.14062C67.4268 4.58984 68.3057 4.31445 69.3721 4.31445C70.5088 4.31445 71.4258 4.5957 72.123 5.1582C72.8262 5.7207 73.1777 6.4502 73.1777 7.34668H71.042C71.042 6.93652 70.8896 6.59668 70.585 6.32715C70.2803 6.05176 69.876 5.91406 69.3721 5.91406C68.9033 5.91406 68.5195 6.02246 68.2207 6.23926C67.9277 6.45605 67.7812 6.74609 67.7812 7.10938C67.7812 7.4375 67.9189 7.69238 68.1943 7.87402C68.4697 8.05566 69.0264 8.24023 69.8643 8.42773C70.7021 8.60938 71.3584 8.8291 71.833 9.08691C72.3135 9.33887 72.668 9.64355 72.8965 10.001C73.1309 10.3584 73.248 10.792 73.248 11.3018C73.248 12.1572 72.8936 12.8516 72.1846 13.3848C71.4756 13.9121 70.5469 14.1758 69.3984 14.1758C68.6191 14.1758 67.9248 14.0352 67.3154 13.7539C66.7061 13.4727 66.2314 13.0859 65.8916 12.5938C65.5518 12.1016 65.3818 11.5713 65.3818 11.0029H67.4561C67.4854 11.5068 67.6758 11.8965 68.0273 12.1719C68.3789 12.4414 68.8447 12.5762 69.4248 12.5762C69.9873 12.5762 70.415 12.4707 70.708 12.2598C71.001 12.043 71.1475 11.7617 71.1475 11.416Z" fill="#A0A8B1"/>
</svg>
