<svg width="242" height="27" viewBox="0 0 242 27" fill="none" xmlns="http://www.w3.org/2000/svg">
<path d="M4.37988 9.24658C3.17383 8.8999 2.29492 8.4751 1.74316 7.97217C1.19629 7.46436 0.922852 6.83936 0.922852 6.09717C0.922852 5.25732 1.25732 4.56396 1.92627 4.01709C2.6001 3.46533 3.47412 3.18945 4.54834 3.18945C5.28076 3.18945 5.93262 3.33105 6.50391 3.61426C7.08008 3.89746 7.52441 4.28809 7.83691 4.78613C8.1543 5.28418 8.31299 5.82861 8.31299 6.41943H6.89941C6.89941 5.7749 6.69434 5.26953 6.28418 4.90332C5.87402 4.53223 5.29541 4.34668 4.54834 4.34668C3.85498 4.34668 3.31299 4.50049 2.92236 4.80811C2.53662 5.11084 2.34375 5.5332 2.34375 6.0752C2.34375 6.50977 2.52686 6.87842 2.89307 7.18115C3.26416 7.479 3.8916 7.75244 4.77539 8.00146C5.66406 8.25049 6.35742 8.52637 6.85547 8.8291C7.3584 9.12695 7.72949 9.47607 7.96875 9.87646C8.21289 10.2769 8.33496 10.748 8.33496 11.29C8.33496 12.1543 7.99805 12.8477 7.32422 13.3701C6.65039 13.8877 5.74951 14.1465 4.62158 14.1465C3.88916 14.1465 3.20557 14.0073 2.5708 13.729C1.93604 13.4458 1.44531 13.0601 1.09863 12.5718C0.756836 12.0835 0.585938 11.5293 0.585938 10.9092H1.99951C1.99951 11.5537 2.23633 12.064 2.70996 12.4399C3.18848 12.811 3.82568 12.9966 4.62158 12.9966C5.36377 12.9966 5.93262 12.8452 6.32812 12.5425C6.72363 12.2397 6.92139 11.8271 6.92139 11.3047C6.92139 10.7822 6.73828 10.3794 6.37207 10.0962C6.00586 9.80811 5.3418 9.5249 4.37988 9.24658ZM13.2202 14.1465C12.146 14.1465 11.272 13.7949 10.5981 13.0918C9.92432 12.3838 9.5874 11.439 9.5874 10.2573V10.0083C9.5874 9.22217 9.73633 8.52148 10.0342 7.90625C10.3369 7.28613 10.7568 6.80273 11.2939 6.45605C11.8359 6.10449 12.4219 5.92871 13.0518 5.92871C14.082 5.92871 14.8828 6.26807 15.4541 6.94678C16.0254 7.62549 16.311 8.59717 16.311 9.86182V10.4258H10.9424C10.9619 11.207 11.189 11.8394 11.6235 12.3228C12.063 12.8013 12.6196 13.0405 13.2935 13.0405C13.772 13.0405 14.1772 12.9429 14.5093 12.7476C14.8413 12.5522 15.1318 12.2935 15.3809 11.9712L16.2085 12.6157C15.5444 13.6362 14.5483 14.1465 13.2202 14.1465ZM13.0518 7.04199C12.5049 7.04199 12.0459 7.24219 11.6748 7.64258C11.3037 8.03809 11.0742 8.59473 10.9863 9.3125H14.9561V9.20996C14.917 8.52148 14.7314 7.98926 14.3994 7.61328C14.0674 7.23242 13.6182 7.04199 13.0518 7.04199ZM19.3579 14H18.0029V2.75H19.3579V14ZM24.8218 14.1465C23.7476 14.1465 22.8735 13.7949 22.1997 13.0918C21.5259 12.3838 21.189 11.439 21.189 10.2573V10.0083C21.189 9.22217 21.3379 8.52148 21.6357 7.90625C21.9385 7.28613 22.3584 6.80273 22.8955 6.45605C23.4375 6.10449 24.0234 5.92871 24.6533 5.92871C25.6836 5.92871 26.4844 6.26807 27.0557 6.94678C27.627 7.62549 27.9126 8.59717 27.9126 9.86182V10.4258H22.5439C22.5635 11.207 22.7905 11.8394 23.2251 12.3228C23.6646 12.8013 24.2212 13.0405 24.895 13.0405C25.3735 13.0405 25.7788 12.9429 26.1108 12.7476C26.4429 12.5522 26.7334 12.2935 26.9824 11.9712L27.8101 12.6157C27.146 13.6362 26.1499 14.1465 24.8218 14.1465ZM24.6533 7.04199C24.1064 7.04199 23.6475 7.24219 23.2764 7.64258C22.9053 8.03809 22.6758 8.59473 22.5879 9.3125H26.5576V9.20996C26.5186 8.52148 26.333 7.98926 26.001 7.61328C25.6689 7.23242 25.2197 7.04199 24.6533 7.04199ZM32.666 13.0405C33.1494 13.0405 33.5718 12.894 33.9331 12.6011C34.2944 12.3081 34.4946 11.9419 34.5337 11.5024H35.8154C35.791 11.9565 35.6348 12.3887 35.3467 12.7988C35.0586 13.209 34.6729 13.5361 34.1895 13.7803C33.7109 14.0244 33.2031 14.1465 32.666 14.1465C31.5869 14.1465 30.7275 13.7876 30.0879 13.0698C29.4531 12.3472 29.1357 11.3608 29.1357 10.1108V9.88379C29.1357 9.1123 29.2773 8.42627 29.5605 7.82568C29.8438 7.2251 30.249 6.75879 30.7764 6.42676C31.3086 6.09473 31.936 5.92871 32.6587 5.92871C33.5474 5.92871 34.2847 6.19482 34.8706 6.72705C35.4614 7.25928 35.7764 7.9502 35.8154 8.7998H34.5337C34.4946 8.28711 34.2993 7.86719 33.9478 7.54004C33.6011 7.20801 33.1714 7.04199 32.6587 7.04199C31.9702 7.04199 31.4355 7.29102 31.0547 7.78906C30.6787 8.28223 30.4907 8.99756 30.4907 9.93506V10.1914C30.4907 11.1045 30.6787 11.8076 31.0547 12.3008C31.4307 12.7939 31.9678 13.0405 32.666 13.0405ZM39.1772 4.15625V6.0752H40.6567V7.12256H39.1772V12.0371C39.1772 12.3545 39.2432 12.5938 39.375 12.7549C39.5068 12.9111 39.7314 12.9893 40.0488 12.9893C40.2051 12.9893 40.4199 12.96 40.6934 12.9014V14C40.3369 14.0977 39.9902 14.1465 39.6533 14.1465C39.0479 14.1465 38.5913 13.9634 38.2837 13.5972C37.9761 13.231 37.8223 12.7109 37.8223 12.0371V7.12256H36.3794V6.0752H37.8223V4.15625H39.1772ZM47.5928 12.8501H52.6465V14H46.1792V3.33594H47.5928V12.8501ZM53.6792 9.96436C53.6792 9.18799 53.8306 8.48975 54.1333 7.86963C54.4409 7.24951 54.8657 6.771 55.4077 6.43408C55.9546 6.09717 56.5771 5.92871 57.2754 5.92871C58.3545 5.92871 59.2261 6.30225 59.8901 7.04932C60.5591 7.79639 60.8936 8.79004 60.8936 10.0303V10.1255C60.8936 10.897 60.7446 11.5903 60.4468 12.2056C60.1538 12.8159 59.7314 13.292 59.1797 13.6338C58.6328 13.9756 58.0029 14.1465 57.29 14.1465C56.2158 14.1465 55.3442 13.7729 54.6753 13.0259C54.0112 12.2788 53.6792 11.29 53.6792 10.0596V9.96436ZM55.0415 10.1255C55.0415 11.0044 55.2441 11.71 55.6494 12.2422C56.0596 12.7744 56.6064 13.0405 57.29 13.0405C57.9785 13.0405 58.5254 12.772 58.9307 12.2349C59.3359 11.6929 59.5386 10.936 59.5386 9.96436C59.5386 9.09521 59.3311 8.39209 58.916 7.85498C58.5059 7.31299 57.959 7.04199 57.2754 7.04199C56.6064 7.04199 56.0669 7.30811 55.6567 7.84033C55.2466 8.37256 55.0415 9.13428 55.0415 10.1255ZM65.7715 13.0405C66.2549 13.0405 66.6772 12.894 67.0386 12.6011C67.3999 12.3081 67.6001 11.9419 67.6392 11.5024H68.9209C68.8965 11.9565 68.7402 12.3887 68.4521 12.7988C68.1641 13.209 67.7783 13.5361 67.2949 13.7803C66.8164 14.0244 66.3086 14.1465 65.7715 14.1465C64.6924 14.1465 63.833 13.7876 63.1934 13.0698C62.5586 12.3472 62.2412 11.3608 62.2412 10.1108V9.88379C62.2412 9.1123 62.3828 8.42627 62.666 7.82568C62.9492 7.2251 63.3545 6.75879 63.8818 6.42676C64.4141 6.09473 65.0415 5.92871 65.7642 5.92871C66.6528 5.92871 67.3901 6.19482 67.9761 6.72705C68.5669 7.25928 68.8818 7.9502 68.9209 8.7998H67.6392C67.6001 8.28711 67.4048 7.86719 67.0532 7.54004C66.7065 7.20801 66.2769 7.04199 65.7642 7.04199C65.0757 7.04199 64.541 7.29102 64.1602 7.78906C63.7842 8.28223 63.5962 8.99756 63.5962 9.93506V10.1914C63.5962 11.1045 63.7842 11.8076 64.1602 12.3008C64.5361 12.7939 65.0732 13.0405 65.7715 13.0405ZM75.3369 14C75.2588 13.8438 75.1953 13.5654 75.1465 13.165C74.5166 13.8193 73.7646 14.1465 72.8906 14.1465C72.1094 14.1465 71.4673 13.9268 70.9644 13.4873C70.4663 13.043 70.2173 12.4814 70.2173 11.8027C70.2173 10.9775 70.5298 10.3379 71.1548 9.88379C71.7847 9.4248 72.6685 9.19531 73.8062 9.19531H75.1245V8.57275C75.1245 8.09912 74.9829 7.72314 74.6997 7.44482C74.4165 7.16162 73.999 7.02002 73.4473 7.02002C72.9639 7.02002 72.5586 7.14209 72.2314 7.38623C71.9043 7.63037 71.7407 7.92578 71.7407 8.27246H70.3784C70.3784 7.87695 70.5176 7.49609 70.7959 7.12988C71.0791 6.75879 71.46 6.46582 71.9385 6.25098C72.4219 6.03613 72.9517 5.92871 73.5278 5.92871C74.4409 5.92871 75.1562 6.1582 75.6738 6.61719C76.1914 7.07129 76.46 7.69873 76.4795 8.49951V12.147C76.4795 12.8745 76.5723 13.4531 76.7578 13.8828V14H75.3369ZM73.0884 12.9673C73.5132 12.9673 73.916 12.8574 74.2969 12.6377C74.6777 12.418 74.9536 12.1323 75.1245 11.7808V10.1548H74.0625C72.4023 10.1548 71.5723 10.6406 71.5723 11.6123C71.5723 12.0371 71.7139 12.3691 71.9971 12.6084C72.2803 12.8477 72.644 12.9673 73.0884 12.9673ZM80.4419 4.15625V6.0752H81.9214V7.12256H80.4419V12.0371C80.4419 12.3545 80.5078 12.5938 80.6396 12.7549C80.7715 12.9111 80.9961 12.9893 81.3135 12.9893C81.4697 12.9893 81.6846 12.96 81.958 12.9014V14C81.6016 14.0977 81.2549 14.1465 80.918 14.1465C80.3125 14.1465 79.856 13.9634 79.5483 13.5972C79.2407 13.231 79.0869 12.7109 79.0869 12.0371V7.12256H77.644V6.0752H79.0869V4.15625H80.4419ZM84.9829 14H83.6279V6.0752H84.9829V14ZM83.5181 3.97314C83.5181 3.75342 83.584 3.56787 83.7158 3.4165C83.8525 3.26514 84.0527 3.18945 84.3164 3.18945C84.5801 3.18945 84.7803 3.26514 84.917 3.4165C85.0537 3.56787 85.1221 3.75342 85.1221 3.97314C85.1221 4.19287 85.0537 4.37598 84.917 4.52246C84.7803 4.66895 84.5801 4.74219 84.3164 4.74219C84.0527 4.74219 83.8525 4.66895 83.7158 4.52246C83.584 4.37598 83.5181 4.19287 83.5181 3.97314ZM86.7993 9.96436C86.7993 9.18799 86.9507 8.48975 87.2534 7.86963C87.561 7.24951 87.9858 6.771 88.5278 6.43408C89.0747 6.09717 89.6973 5.92871 90.3955 5.92871C91.4746 5.92871 92.3462 6.30225 93.0103 7.04932C93.6792 7.79639 94.0137 8.79004 94.0137 10.0303V10.1255C94.0137 10.897 93.8647 11.5903 93.5669 12.2056C93.2739 12.8159 92.8516 13.292 92.2998 13.6338C91.7529 13.9756 91.123 14.1465 90.4102 14.1465C89.3359 14.1465 88.4644 13.7729 87.7954 13.0259C87.1313 12.2788 86.7993 11.29 86.7993 10.0596V9.96436ZM88.1616 10.1255C88.1616 11.0044 88.3643 11.71 88.7695 12.2422C89.1797 12.7744 89.7266 13.0405 90.4102 13.0405C91.0986 13.0405 91.6455 12.772 92.0508 12.2349C92.4561 11.6929 92.6587 10.936 92.6587 9.96436C92.6587 9.09521 92.4512 8.39209 92.0361 7.85498C91.626 7.31299 91.0791 7.04199 90.3955 7.04199C89.7266 7.04199 89.187 7.30811 88.7769 7.84033C88.3667 8.37256 88.1616 9.13428 88.1616 10.1255ZM96.9946 6.0752L97.0386 7.07129C97.644 6.30957 98.4351 5.92871 99.4116 5.92871C101.086 5.92871 101.931 6.87354 101.946 8.76318V14H100.591V8.75586C100.586 8.18457 100.454 7.76221 100.195 7.48877C99.9414 7.21533 99.5435 7.07861 99.0015 7.07861C98.562 7.07861 98.1763 7.1958 97.8442 7.43018C97.5122 7.66455 97.2534 7.97217 97.0679 8.35303V14H95.7129V6.0752H96.9946Z" fill="#C4C4C4"/>
<line x1="4.37114e-08" y1="26.5" x2="242" y2="26.5" stroke="#E2E6E8"/>
<g clip-path="url(#clip0_6_240)">
<path d="M241.841 8.13802C241.629 7.92624 241.287 7.92624 241.075 8.13802L235.5 13.7133L229.925 8.13802C229.713 7.92624 229.371 7.92624 229.159 8.13802C228.947 8.3498 228.947 8.69213 229.159 8.90391L235.117 14.8621C235.223 14.9678 235.361 15.0208 235.5 15.0208C235.639 15.0208 235.777 14.9678 235.883 14.8621L241.841 8.90391C242.053 8.69213 242.053 8.3498 241.841 8.13802Z" fill="#CACED3"/>
</g>
<defs>
<clipPath id="clip0_6_240">
<rect width="13" height="13" fill="white" transform="translate(229 5)"/>
</clipPath>
</defs>
</svg>
