<svg width="55" height="14" viewBox="0 0 55 14" fill="none" xmlns="http://www.w3.org/2000/svg">
<path d="M2.00488 11.6968H7.73242V13H0.402832V0.914062H2.00488V11.6968ZM8.90283 8.42627C8.90283 7.54639 9.07438 6.75505 9.41748 6.05225C9.76611 5.34945 10.2476 4.80713 10.8618 4.42529C11.4816 4.04346 12.1872 3.85254 12.9785 3.85254C14.2015 3.85254 15.1893 4.27588 15.9419 5.12256C16.7 5.96924 17.0791 7.09538 17.0791 8.50098V8.60889C17.0791 9.48324 16.9103 10.269 16.5728 10.9663C16.2407 11.658 15.762 12.1976 15.1367 12.585C14.5169 12.9723 13.8031 13.166 12.9951 13.166C11.7777 13.166 10.7899 12.7427 10.0317 11.896C9.27913 11.0493 8.90283 9.92871 8.90283 8.53418V8.42627ZM10.4468 8.60889C10.4468 9.60498 10.6764 10.4046 11.1357 11.0078C11.6006 11.611 12.2204 11.9126 12.9951 11.9126C13.7754 11.9126 14.3952 11.6082 14.8545 10.9995C15.3138 10.3853 15.5435 9.52751 15.5435 8.42627C15.5435 7.44124 15.3083 6.64437 14.8379 6.03564C14.373 5.42139 13.7533 5.11426 12.9785 5.11426C12.2204 5.11426 11.6089 5.41585 11.144 6.01904C10.6792 6.62223 10.4468 7.48551 10.4468 8.60889ZM20.4575 4.01855L20.5073 5.14746C21.1935 4.28418 22.09 3.85254 23.1968 3.85254C25.0949 3.85254 26.0522 4.92334 26.0688 7.06494V13H24.5332V7.05664C24.5277 6.40918 24.3783 5.9305 24.085 5.62061C23.7972 5.31071 23.3462 5.15576 22.7319 5.15576C22.2339 5.15576 21.7967 5.28857 21.4204 5.5542C21.0441 5.81982 20.7508 6.16846 20.5405 6.6001V13H19.0049V4.01855H20.4575ZM28.0112 8.43457C28.0112 7.05664 28.3377 5.94987 28.9907 5.11426C29.6437 4.27311 30.4987 3.85254 31.5557 3.85254C32.6071 3.85254 33.4399 4.21224 34.0542 4.93164V0.25H35.5898V13H34.1787L34.104 12.0371C33.4897 12.7897 32.6348 13.166 31.5391 13.166C30.4987 13.166 29.6493 12.7399 28.9907 11.8877C28.3377 11.0355 28.0112 9.92318 28.0112 8.55078V8.43457ZM29.5469 8.60889C29.5469 9.62712 29.7572 10.424 30.1777 10.9995C30.5983 11.575 31.1794 11.8628 31.9209 11.8628C32.8949 11.8628 33.606 11.4256 34.0542 10.5513V6.42578C33.5949 5.5791 32.8893 5.15576 31.9375 5.15576C31.1849 5.15576 30.5983 5.44629 30.1777 6.02734C29.7572 6.6084 29.5469 7.46891 29.5469 8.60889ZM37.5737 8.42627C37.5737 7.54639 37.7453 6.75505 38.0884 6.05225C38.437 5.34945 38.9185 4.80713 39.5327 4.42529C40.1525 4.04346 40.8581 3.85254 41.6494 3.85254C42.8724 3.85254 43.8602 4.27588 44.6128 5.12256C45.3709 5.96924 45.75 7.09538 45.75 8.50098V8.60889C45.75 9.48324 45.5812 10.269 45.2437 10.9663C44.9116 11.658 44.4329 12.1976 43.8076 12.585C43.1878 12.9723 42.474 13.166 41.666 13.166C40.4486 13.166 39.4608 12.7427 38.7026 11.896C37.95 11.0493 37.5737 9.92871 37.5737 8.53418V8.42627ZM39.1177 8.60889C39.1177 9.60498 39.3473 10.4046 39.8066 11.0078C40.2715 11.611 40.8913 11.9126 41.666 11.9126C42.4463 11.9126 43.0661 11.6082 43.5254 10.9995C43.9847 10.3853 44.2144 9.52751 44.2144 8.42627C44.2144 7.44124 43.9792 6.64437 43.5088 6.03564C43.0439 5.42139 42.4242 5.11426 41.6494 5.11426C40.8913 5.11426 40.2798 5.41585 39.8149 6.01904C39.3501 6.62223 39.1177 7.48551 39.1177 8.60889ZM49.1284 4.01855L49.1782 5.14746C49.8644 4.28418 50.7609 3.85254 51.8677 3.85254C53.7658 3.85254 54.7231 4.92334 54.7397 7.06494V13H53.2041V7.05664C53.1986 6.40918 53.0492 5.9305 52.7559 5.62061C52.4681 5.31071 52.0171 5.15576 51.4028 5.15576C50.9048 5.15576 50.4676 5.28857 50.0913 5.5542C49.715 5.81982 49.4217 6.16846 49.2114 6.6001V13H47.6758V4.01855H49.1284Z" fill="#959FA8"/>
</svg>
