<svg width="9" height="5" viewBox="0 0 9 5" fill="none" xmlns="http://www.w3.org/2000/svg">
<path d="M1.25 0.875L4.5 4.125L7.75 0.875" stroke="#A0A8B1" stroke-linecap="round" stroke-linejoin="round"/>
</svg>
